EESchema Schematic File Version 2
LIBS:RFModuleAdapter
LIBS:power
LIBS:device
LIBS:transistors
LIBS:conn
LIBS:linear
LIBS:regul
LIBS:74xx
LIBS:cmos4000
LIBS:adc-dac
LIBS:memory
LIBS:xilinx
LIBS:special
LIBS:microcontrollers
LIBS:dsp
LIBS:microchip
LIBS:analog_switches
LIBS:motorola
LIBS:texas
LIBS:intel
LIBS:audio
LIBS:interface
LIBS:digital-audio
LIBS:philips
LIBS:display
LIBS:cypress
LIBS:siliconi
LIBS:opto
LIBS:atmel
LIBS:contrib
LIBS:valves
LIBS:RFModuleAdapter-cache
EELAYER 27 0
EELAYER END
$Descr A4 11693 8268
encoding utf-8
Sheet 1 1
Title "Radio bridge shield for Arduino Micro"
Date "1 sep 2015"
Rev "0.1"
Comp "(c) 2015 Primo"
Comment1 "Designed by Primo and Claudio Indellicati"
Comment2 ""
Comment3 ""
Comment4 ""
$EndDescr
Text Label 7950 4200 0    60   ~ 0
D2
Text Label 7950 4300 0    60   ~ 0
D0
Text Label 3950 3300 2    60   ~ 0
D2
Text Label 3950 3000 2    60   ~ 0
D0
$Comp
L RF-IS2411 MOD2
U 1 1 55D36277
P 7500 4350
F 0 "MOD2" H 7150 4650 40  0000 L CNN
F 1 "RF-IS2411" H 7150 4050 40  0000 L CNN
F 2 "~" H 7500 4350 60  0000 C CNN
F 3 "~" H 7500 4350 60  0000 C CNN
F 4 "YXCON" H 7500 4350 60  0001 C CNN "Manufacturer"
F 5 "F185-1208A0BSYA1" H 7500 4350 60  0001 C CNN "Manufacturer PN"
F 6 "320030087" H 7500 4350 60  0001 C CNN "Seeed SKU"
	1    7500 4350
	1    0    0    -1  
$EndComp
$Comp
L ARDUINO_MICRO_FOOTPRINT MOD1
U 1 1 55D363E4
P 4600 3500
F 0 "MOD1" H 4200 4450 40  0000 L BNN
F 1 "ARDUINO_MICRO_FOOTPRINT" H 5000 2550 40  0000 R TNN
F 2 "~" H 4600 5500 60  0000 C CNN
F 3 "~" H 4600 5500 60  0000 C CNN
	1    4600 3500
	1    0    0    -1  
$EndComp
Text Label 6900 4500 2    60   ~ 0
D1
Text Label 3950 2900 2    60   ~ 0
D1
Text Label 6900 4400 2    60   ~ 0
SCK
Text Label 5250 2700 0    60   ~ 0
SCK
Text Label 6900 4200 2    60   ~ 0
MISO
Text Label 5250 2800 0    60   ~ 0
MISO
Text Label 3950 2700 2    60   ~ 0
MOSI
$Comp
L GND #PWR01
U 1 1 55D36503
P 5650 3100
F 0 "#PWR01" H 5650 3100 30  0001 C CNN
F 1 "GND" H 5650 3030 30  0001 C CNN
F 2 "" H 5650 3100 60  0000 C CNN
F 3 "" H 5650 3100 60  0000 C CNN
	1    5650 3100
	1    0    0    -1  
$EndComp
Text Label 6900 4300 2    60   ~ 0
MOSI
$Comp
L GND #PWR02
U 1 1 55D36569
P 7600 4850
F 0 "#PWR02" H 7600 4850 30  0001 C CNN
F 1 "GND" H 7600 4780 30  0001 C CNN
F 2 "" H 7600 4850 60  0000 C CNN
F 3 "" H 7600 4850 60  0000 C CNN
	1    7600 4850
	1    0    0    -1  
$EndComp
NoConn ~ 5150 3100
NoConn ~ 5150 2900
NoConn ~ 5150 3500
NoConn ~ 5150 3600
NoConn ~ 5150 3700
NoConn ~ 5150 3800
NoConn ~ 5150 3900
NoConn ~ 5150 4000
NoConn ~ 5150 4100
NoConn ~ 5150 4200
NoConn ~ 5150 4300
NoConn ~ 4050 4300
NoConn ~ 4050 4200
NoConn ~ 4050 3900
NoConn ~ 4050 3700
NoConn ~ 4050 3600
NoConn ~ 4050 3500
NoConn ~ 4050 3400
NoConn ~ 4050 3200
NoConn ~ 4050 3100
NoConn ~ 4050 2800
$Comp
L +5V #PWR03
U 1 1 55D36580
P 5800 3100
F 0 "#PWR03" H 5800 3190 20  0001 C CNN
F 1 "+5V" H 5800 3190 30  0000 C CNN
F 2 "" H 5800 3100 60  0000 C CNN
F 3 "" H 5800 3100 60  0000 C CNN
	1    5800 3100
	1    0    0    -1  
$EndComp
$Comp
L +3.3V #PWR04
U 1 1 55D365A9
P 7450 3850
F 0 "#PWR04" H 7450 3810 30  0001 C CNN
F 1 "+3.3V" H 7450 3960 30  0000 C CNN
F 2 "" H 7450 3850 60  0000 C CNN
F 3 "" H 7450 3850 60  0000 C CNN
	1    7450 3850
	1    0    0    -1  
$EndComp
$Comp
L PWR_FLAG #FLG05
U 1 1 55D36698
P 5650 2900
F 0 "#FLG05" H 5650 2995 30  0001 C CNN
F 1 "PWR_FLAG" H 5650 3080 30  0000 C CNN
F 2 "" H 5650 2900 60  0000 C CNN
F 3 "" H 5650 2900 60  0000 C CNN
	1    5650 2900
	1    0    0    -1  
$EndComp
$Comp
L PWR_FLAG #FLG06
U 1 1 55D366A5
P 5800 3300
F 0 "#FLG06" H 5800 3395 30  0001 C CNN
F 1 "PWR_FLAG" H 5800 3480 30  0000 C CNN
F 2 "" H 5800 3300 60  0000 C CNN
F 3 "" H 5800 3300 60  0000 C CNN
	1    5800 3300
	-1   0    0    1   
$EndComp
$Comp
L +3.3V #PWR07
U 1 1 55D366D1
P 7900 2350
F 0 "#PWR07" H 7900 2310 30  0001 C CNN
F 1 "+3.3V" H 7900 2460 30  0000 C CNN
F 2 "" H 7900 2350 60  0000 C CNN
F 3 "" H 7900 2350 60  0000 C CNN
	1    7900 2350
	1    0    0    -1  
$EndComp
$Comp
L LM1117 IC1
U 1 1 55D36A56
P 7450 2600
F 0 "IC1" H 7700 2500 40  0000 R TNN
F 1 "LM1117-N-3.3" H 7700 2850 40  0000 R BNN
F 2 "SOT-223" H 7450 2600 60  0001 C CNN
F 3 "" H 7450 2600 60  0000 C CNN
F 4 "CJ" H 7450 2600 60  0001 C CNN "Manufacturer"
F 5 "CJT1117-3.3" H 7450 2600 60  0001 C CNN "Manufacturer PN"
F 6 "310030097" H 7450 2600 60  0001 C CNN "Seeed SKU"
	1    7450 2600
	1    0    0    -1  
$EndComp
$Comp
L CP1 C1
U 1 1 55D36A7D
P 7000 2750
F 0 "C1" H 7050 2850 50  0000 L CNN
F 1 "10uF/10V" H 7050 2650 50  0000 L CNN
F 2 "1206" H 7000 2750 60  0001 C CNN
F 3 "~" H 7000 2750 60  0000 C CNN
F 4 "Tantalum" H 7050 2600 60  0000 L TNN "Technology"
F 5 "AVX" H 7000 2750 60  0001 C CNN "Manufacturer"
F 6 "TAJA106K010RNJ" H 7000 2750 60  0001 C CNN "Manufacturer PN"
F 7 "302020011" H 7000 2750 60  0001 C CNN "Seeed SKU"
	1    7000 2750
	-1   0    0    -1  
$EndComp
$Comp
L CP1 C2
U 1 1 55D36AA6
P 7900 2750
F 0 "C2" H 7950 2850 50  0000 L CNN
F 1 "100uF/10V" H 7950 2650 50  0000 L CNN
F 2 "2312" H 7900 2750 60  0001 C CNN
F 3 "~" H 7900 2750 60  0000 C CNN
F 4 "Tantalum" H 7950 2600 60  0000 L TNN "Technology"
F 5 "AVX" H 7900 2750 60  0001 C CNN "Manufacturer"
F 6 "TAJC107K010RNJ" H 7900 2750 60  0001 C CNN "Manufacturer PN"
F 7 "302020025" H 7900 2750 60  0001 C CNN "Seeed SKU"
	1    7900 2750
	1    0    0    -1  
$EndComp
$Comp
L GND #PWR08
U 1 1 55D36B03
P 7450 3050
F 0 "#PWR08" H 7450 3050 30  0001 C CNN
F 1 "GND" H 7450 2980 30  0001 C CNN
F 2 "" H 7450 3050 60  0000 C CNN
F 3 "" H 7450 3050 60  0000 C CNN
	1    7450 3050
	1    0    0    -1  
$EndComp
$Comp
L +5V #PWR09
U 1 1 55D36B09
P 7000 2350
F 0 "#PWR09" H 7000 2440 20  0001 C CNN
F 1 "+5V" H 7000 2440 30  0000 C CNN
F 2 "" H 7000 2350 60  0000 C CNN
F 3 "" H 7000 2350 60  0000 C CNN
	1    7000 2350
	1    0    0    -1  
$EndComp
$Comp
L GND #PWR010
U 1 1 55D36B98
P 7000 3050
F 0 "#PWR010" H 7000 3050 30  0001 C CNN
F 1 "GND" H 7000 2980 30  0001 C CNN
F 2 "" H 7000 3050 60  0000 C CNN
F 3 "" H 7000 3050 60  0000 C CNN
	1    7000 3050
	1    0    0    -1  
$EndComp
NoConn ~ 4050 3800
NoConn ~ 4050 4000
NoConn ~ 4050 4100
Text Notes 6750 1900 0    60   ~ 0
REMOVE THE OUTPUT CAPACITOR\nIF THE REGULATOR CAN BE MOUNTED\nNEAR THE RF MODULE CONNECTOR
Wire Wire Line
	7850 4200 7950 4200
Wire Wire Line
	7850 4300 7950 4300
Wire Wire Line
	7000 4500 6900 4500
Wire Wire Line
	7000 4400 6900 4400
Wire Wire Line
	5150 2700 5250 2700
Wire Wire Line
	5150 2800 5250 2800
Wire Wire Line
	4050 2700 3950 2700
Wire Wire Line
	7000 4300 6900 4300
Wire Wire Line
	7000 4200 6900 4200
Wire Wire Line
	7600 4850 7600 4750
Wire Wire Line
	7000 2350 7000 2550
Wire Wire Line
	7100 2450 7000 2450
Connection ~ 7000 2450
Wire Wire Line
	7450 3050 7450 2750
Wire Wire Line
	7000 3050 7000 2950
Wire Wire Line
	5800 3100 5800 3300
Wire Wire Line
	5150 3200 5800 3200
Connection ~ 5800 3200
Wire Wire Line
	5650 2900 5650 3100
Wire Wire Line
	5150 3000 5650 3000
Connection ~ 5650 3000
Wire Wire Line
	4050 3300 3950 3300
Wire Wire Line
	3950 2900 4050 2900
Wire Wire Line
	3950 3000 4050 3000
Connection ~ 7900 2450
Wire Wire Line
	7800 2450 7900 2450
Wire Wire Line
	7900 2350 7900 2550
Wire Wire Line
	7900 3050 7900 2950
$Comp
L GND #PWR011
U 1 1 55D36B9E
P 7900 3050
F 0 "#PWR011" H 7900 3050 30  0001 C CNN
F 1 "GND" H 7900 2980 30  0001 C CNN
F 2 "" H 7900 3050 60  0000 C CNN
F 3 "" H 7900 3050 60  0000 C CNN
	1    7900 3050
	1    0    0    -1  
$EndComp
Wire Wire Line
	7450 3950 7450 3850
$EndSCHEMATC
