<?xml version="1.0" encoding="utf-8"?>
<!-- Generator: Adobe Illustrator 18.1.0, SVG Export Plug-In . SVG Version: 6.00 Build 0)  -->
<svg version="1.1" id="Layer_1" xmlns="http://www.w3.org/2000/svg" xmlns:xlink="http://www.w3.org/1999/xlink" x="0px" y="0px"
	 viewBox="2037.6 57.2 404.8 429.9" enable-background="new 2037.6 57.2 404.8 429.9" xml:space="preserve">
<g id="Layer_1_1_">
</g>
<g>
	<path fill="#FFFFFF" d="M2240,460.7c90.2,0,163.7-73.4,163.7-163.7c0-39.4-14.2-77.5-40-107.2l-16.1,14
		c22.4,25.9,34.8,59,34.8,93.2c0,78.5-63.9,142.3-142.3,142.3s-142.3-63.9-142.3-142.3c0-34.3,12.3-67.4,34.8-93.2
		c22.2-25.6,52.8-42.5,86.1-47.5l-3.2-21.1c-38.3,5.8-73.5,25.2-99,54.6c-25.8,29.7-40,67.8-40,107.2
		C2076.3,387.2,2149.8,460.7,2240,460.7z"/>
	<g>
		<polygon fill="#FFFFFF" points="2171.5,252.3 2153.5,240.9 2209.7,152 2117,102.4 2127.1,83.6 2240,144 		"/>
	</g>
</g>
</svg>
