G04 (created by PCBNEW (2014-01-10 BZR 4027)-stable) date Fri 04 Sep 2015 02:26:17 PM CEST*
%MOIN*%
G04 Gerber Fmt 3.4, Leading zero omitted, Abs format*
%FSLAX34Y34*%
G01*
G70*
G90*
G04 APERTURE LIST*
%ADD10C,0.00590551*%
%ADD11R,0.0846457X0.0374016*%
%ADD12R,0.0846457X0.127953*%
%ADD13R,0.1004X0.0984*%
%ADD14R,0.0591X0.0768*%
%ADD15C,0.085*%
%ADD16C,0.0725*%
%ADD17C,0.04*%
%ADD18C,0.03*%
%ADD19C,0.01*%
%ADD20C,0.02*%
G04 APERTURE END LIST*
G54D10*
G54D11*
X3358Y7905D03*
X3358Y7000D03*
X3358Y6094D03*
G54D12*
X5641Y7000D03*
G54D13*
X2506Y4500D03*
X4494Y4500D03*
G54D14*
X2250Y6459D03*
X2250Y7541D03*
G54D15*
X7000Y11000D03*
X7000Y10000D03*
X7000Y9000D03*
X7000Y8000D03*
X7000Y7000D03*
X7000Y6000D03*
X7000Y5000D03*
X7000Y4000D03*
X7000Y3000D03*
X7000Y2000D03*
X1000Y2000D03*
X1000Y3000D03*
X1000Y4000D03*
X1000Y5000D03*
X1000Y6000D03*
X1000Y7000D03*
X1000Y8000D03*
X1000Y9000D03*
X1000Y10000D03*
X1000Y11000D03*
X7000Y1000D03*
X1000Y1000D03*
G54D16*
X2500Y1600D03*
X2500Y2600D03*
X3500Y1600D03*
X3500Y2600D03*
X4500Y1600D03*
X4500Y2600D03*
X5500Y1600D03*
X5500Y2600D03*
G54D17*
X5450Y3450D03*
X1800Y3000D03*
X1650Y4500D03*
X1700Y3500D03*
X1900Y5500D03*
X1700Y2500D03*
X1800Y1000D03*
X2000Y8350D03*
X1700Y7541D03*
X1700Y1500D03*
X1800Y2000D03*
X2200Y750D03*
X2750Y750D03*
X3300Y750D03*
X4400Y5400D03*
X4550Y8050D03*
X4550Y7600D03*
X4800Y6450D03*
X4800Y6000D03*
X4850Y5400D03*
X4850Y3550D03*
X4400Y3550D03*
X3950Y3550D03*
X3500Y3950D03*
X3500Y4500D03*
X3500Y5050D03*
X5550Y9050D03*
X5150Y9050D03*
X4750Y9050D03*
X4350Y9050D03*
X3950Y9050D03*
X3550Y9050D03*
X3150Y9050D03*
X2750Y9050D03*
X1700Y8650D03*
X5950Y9050D03*
G54D18*
X3358Y7000D02*
X5641Y7000D01*
X2506Y4500D02*
X2506Y2606D01*
X2506Y2606D02*
X2500Y2600D01*
X3358Y7000D02*
X3900Y7000D01*
X2506Y5256D02*
X2506Y4500D01*
X2900Y5650D02*
X2506Y5256D01*
X3900Y5650D02*
X2900Y5650D01*
X4150Y5900D02*
X3900Y5650D01*
X4150Y6750D02*
X4150Y5900D01*
X3900Y7000D02*
X4150Y6750D01*
X3358Y6094D02*
X2905Y6094D01*
X2541Y6459D02*
X2250Y6459D01*
X2905Y6094D02*
X2541Y6459D01*
X1000Y6000D02*
X1500Y6000D01*
X2209Y6500D02*
X2250Y6459D01*
X2000Y6500D02*
X2209Y6500D01*
X1500Y6000D02*
X2000Y6500D01*
G54D19*
X5500Y2600D02*
X6400Y3500D01*
X6400Y4400D02*
X7000Y5000D01*
X6400Y3500D02*
X6400Y4400D01*
X5000Y2100D02*
X5500Y1600D01*
X5000Y3000D02*
X5000Y2100D01*
X5450Y3450D02*
X5000Y3000D01*
X1800Y3000D02*
X1750Y3450D01*
X1750Y3450D02*
X1700Y3500D01*
X1650Y4500D02*
X1650Y5250D01*
X1650Y5250D02*
X1900Y5500D01*
X1700Y2900D02*
X1800Y3000D01*
X1700Y2500D02*
X1700Y2900D01*
X4850Y5400D02*
X4850Y5950D01*
X4850Y5950D02*
X4800Y6000D01*
X3358Y7905D02*
X4405Y7905D01*
X4405Y7905D02*
X4550Y8050D01*
X1700Y8650D02*
X2000Y8350D01*
X2500Y1600D02*
X3300Y750D01*
X1700Y1500D02*
X1800Y1600D01*
X1800Y1600D02*
X1800Y2000D01*
X2750Y750D02*
X2200Y750D01*
X2500Y1600D02*
X3000Y2100D01*
X3000Y3450D02*
X3500Y3950D01*
X3000Y2100D02*
X3000Y3450D01*
X4800Y6000D02*
X4800Y6000D01*
X4400Y3550D02*
X4850Y3550D01*
X3500Y3950D02*
X3950Y3550D01*
X3500Y5050D02*
X3500Y4500D01*
G54D18*
X2250Y7541D02*
X2341Y7450D01*
X3300Y7847D02*
X3358Y7905D01*
X3300Y7450D02*
X3300Y7847D01*
X2341Y7450D02*
X3300Y7450D01*
G54D19*
X5950Y9050D02*
X5550Y9050D01*
X4750Y9050D02*
X5150Y9050D01*
X3950Y9050D02*
X4350Y9050D01*
X3150Y9050D02*
X3550Y9050D01*
X2100Y9050D02*
X2750Y9050D01*
X1700Y8650D02*
X2100Y9050D01*
X1000Y8000D02*
X1459Y7541D01*
X1459Y7541D02*
X1700Y7541D01*
X1700Y7541D02*
X2250Y7541D01*
G54D10*
G36*
X6588Y5500D02*
X6503Y5416D01*
X6432Y5312D01*
X6382Y5195D01*
X6355Y5072D01*
X6354Y4945D01*
X6376Y4821D01*
X6394Y4776D01*
X6209Y4590D01*
X6193Y4571D01*
X6177Y4552D01*
X6176Y4551D01*
X6175Y4550D01*
X6163Y4528D01*
X6151Y4506D01*
X6151Y4505D01*
X6150Y4503D01*
X6143Y4479D01*
X6135Y4456D01*
X6135Y4454D01*
X6135Y4453D01*
X6132Y4428D01*
X6130Y4403D01*
X6130Y4400D01*
X6130Y4400D01*
X6130Y4400D01*
X6130Y4400D01*
X6130Y3611D01*
X5855Y3336D01*
X5868Y3397D01*
X5870Y3491D01*
X5854Y3571D01*
X5822Y3648D01*
X5777Y3716D01*
X5719Y3775D01*
X5650Y3821D01*
X5574Y3853D01*
X5494Y3869D01*
X5411Y3870D01*
X5330Y3854D01*
X5254Y3824D01*
X5246Y3818D01*
X5246Y4030D01*
X5246Y4969D01*
X5245Y5018D01*
X5235Y5066D01*
X5216Y5111D01*
X5189Y5152D01*
X5154Y5186D01*
X5113Y5213D01*
X5068Y5232D01*
X5020Y5242D01*
X4606Y5242D01*
X4544Y5179D01*
X4544Y4550D01*
X5183Y4550D01*
X5246Y4612D01*
X5246Y4969D01*
X5246Y4030D01*
X5246Y4387D01*
X5183Y4450D01*
X4544Y4450D01*
X4544Y3820D01*
X4606Y3758D01*
X5020Y3757D01*
X5068Y3767D01*
X5113Y3786D01*
X5154Y3813D01*
X5189Y3847D01*
X5216Y3888D01*
X5235Y3933D01*
X5245Y3981D01*
X5246Y4030D01*
X5246Y3818D01*
X5185Y3778D01*
X5126Y3721D01*
X5080Y3653D01*
X5047Y3577D01*
X5030Y3497D01*
X5029Y3414D01*
X5029Y3411D01*
X4809Y3190D01*
X4793Y3171D01*
X4777Y3152D01*
X4776Y3151D01*
X4775Y3150D01*
X4763Y3128D01*
X4760Y3122D01*
X4673Y3159D01*
X4561Y3182D01*
X4446Y3182D01*
X4444Y3182D01*
X4444Y3820D01*
X4444Y4450D01*
X4444Y4550D01*
X4444Y5179D01*
X4381Y5242D01*
X3967Y5242D01*
X3919Y5232D01*
X3874Y5213D01*
X3833Y5186D01*
X3798Y5152D01*
X3771Y5111D01*
X3752Y5066D01*
X3742Y5018D01*
X3741Y4969D01*
X3742Y4612D01*
X3804Y4550D01*
X4444Y4550D01*
X4444Y4450D01*
X3804Y4450D01*
X3742Y4387D01*
X3741Y4030D01*
X3742Y3981D01*
X3752Y3933D01*
X3771Y3888D01*
X3798Y3847D01*
X3833Y3813D01*
X3874Y3786D01*
X3919Y3767D01*
X3967Y3757D01*
X4381Y3758D01*
X4444Y3820D01*
X4444Y3182D01*
X4334Y3161D01*
X4228Y3118D01*
X4133Y3056D01*
X4051Y2976D01*
X3999Y2900D01*
X3953Y2969D01*
X3873Y3050D01*
X3778Y3114D01*
X3673Y3159D01*
X3561Y3182D01*
X3446Y3182D01*
X3334Y3161D01*
X3228Y3118D01*
X3133Y3056D01*
X3051Y2976D01*
X2999Y2900D01*
X2953Y2969D01*
X2876Y3048D01*
X2876Y3787D01*
X3029Y3787D01*
X3071Y3796D01*
X3111Y3812D01*
X3147Y3836D01*
X3178Y3867D01*
X3202Y3902D01*
X3219Y3942D01*
X3227Y3984D01*
X3228Y4028D01*
X3228Y5013D01*
X3219Y5055D01*
X3203Y5095D01*
X3179Y5131D01*
X3148Y5162D01*
X3113Y5186D01*
X3073Y5203D01*
X3031Y5211D01*
X2987Y5212D01*
X2985Y5212D01*
X3053Y5280D01*
X3900Y5280D01*
X3934Y5283D01*
X3968Y5286D01*
X3969Y5286D01*
X3971Y5287D01*
X4004Y5296D01*
X4037Y5306D01*
X4039Y5307D01*
X4040Y5307D01*
X4071Y5323D01*
X4101Y5339D01*
X4103Y5340D01*
X4104Y5341D01*
X4131Y5363D01*
X4157Y5384D01*
X4160Y5387D01*
X4160Y5387D01*
X4160Y5387D01*
X4161Y5388D01*
X4411Y5638D01*
X4433Y5664D01*
X4455Y5690D01*
X4456Y5692D01*
X4457Y5694D01*
X4473Y5724D01*
X4490Y5754D01*
X4490Y5756D01*
X4491Y5757D01*
X4501Y5790D01*
X4511Y5823D01*
X4512Y5825D01*
X4512Y5826D01*
X4516Y5860D01*
X4519Y5894D01*
X4519Y5898D01*
X4519Y5898D01*
X4519Y5898D01*
X4520Y5900D01*
X4520Y6630D01*
X4998Y6630D01*
X4998Y6338D01*
X5006Y6296D01*
X5023Y6256D01*
X5047Y6220D01*
X5077Y6189D01*
X5113Y6165D01*
X5153Y6149D01*
X5195Y6140D01*
X5238Y6140D01*
X6086Y6140D01*
X6128Y6148D01*
X6168Y6165D01*
X6204Y6188D01*
X6235Y6219D01*
X6259Y6255D01*
X6276Y6294D01*
X6284Y6337D01*
X6285Y6380D01*
X6284Y7661D01*
X6276Y7703D01*
X6260Y7743D01*
X6236Y7779D01*
X6205Y7810D01*
X6170Y7834D01*
X6130Y7850D01*
X6088Y7859D01*
X6044Y7859D01*
X5196Y7859D01*
X5154Y7851D01*
X5114Y7834D01*
X5078Y7811D01*
X5048Y7780D01*
X5024Y7744D01*
X5007Y7705D01*
X4998Y7662D01*
X4998Y7619D01*
X4998Y7370D01*
X4031Y7370D01*
X4031Y7693D01*
X4031Y8117D01*
X4021Y8165D01*
X4003Y8210D01*
X3976Y8251D01*
X3941Y8286D01*
X3900Y8313D01*
X3855Y8332D01*
X3807Y8342D01*
X3758Y8342D01*
X3470Y8342D01*
X3408Y8280D01*
X3408Y7955D01*
X3968Y7955D01*
X4031Y8018D01*
X4031Y8117D01*
X4031Y7693D01*
X4031Y7793D01*
X3968Y7855D01*
X3408Y7855D01*
X3408Y7531D01*
X3470Y7468D01*
X3758Y7468D01*
X3807Y7468D01*
X3855Y7478D01*
X3900Y7497D01*
X3941Y7524D01*
X3976Y7559D01*
X4003Y7600D01*
X4021Y7645D01*
X4031Y7693D01*
X4031Y7370D01*
X3903Y7370D01*
X3886Y7381D01*
X3846Y7398D01*
X3804Y7406D01*
X3761Y7407D01*
X3308Y7407D01*
X2913Y7407D01*
X2871Y7398D01*
X2831Y7382D01*
X2795Y7358D01*
X2795Y7428D01*
X2733Y7490D01*
X2795Y7490D01*
X2795Y7511D01*
X2815Y7497D01*
X2860Y7478D01*
X2908Y7468D01*
X2957Y7468D01*
X3245Y7468D01*
X3308Y7531D01*
X3308Y7855D01*
X3300Y7855D01*
X3300Y7955D01*
X3308Y7955D01*
X3308Y8280D01*
X3245Y8342D01*
X2957Y8342D01*
X2908Y8342D01*
X2860Y8332D01*
X2815Y8313D01*
X2774Y8286D01*
X2740Y8251D01*
X2713Y8210D01*
X2694Y8165D01*
X2687Y8130D01*
X2664Y8145D01*
X2619Y8164D01*
X2571Y8174D01*
X2522Y8175D01*
X2362Y8175D01*
X2300Y8112D01*
X2300Y7591D01*
X2307Y7591D01*
X2307Y7491D01*
X2300Y7491D01*
X2300Y7483D01*
X2200Y7483D01*
X2200Y7491D01*
X2200Y7591D01*
X2200Y8112D01*
X2137Y8175D01*
X1977Y8175D01*
X1928Y8174D01*
X1880Y8164D01*
X1835Y8145D01*
X1794Y8118D01*
X1759Y8083D01*
X1732Y8042D01*
X1714Y7997D01*
X1704Y7949D01*
X1704Y7653D01*
X1767Y7591D01*
X2200Y7591D01*
X2200Y7491D01*
X1767Y7491D01*
X1704Y7428D01*
X1704Y7132D01*
X1714Y7084D01*
X1732Y7039D01*
X1759Y6998D01*
X1780Y6977D01*
X1760Y6948D01*
X1743Y6908D01*
X1734Y6866D01*
X1734Y6822D01*
X1734Y6757D01*
X1677Y6701D01*
X1677Y8021D01*
X1660Y8152D01*
X1618Y8278D01*
X1576Y8357D01*
X1469Y8398D01*
X1070Y8000D01*
X1469Y7601D01*
X1576Y7642D01*
X1635Y7761D01*
X1669Y7889D01*
X1677Y8021D01*
X1677Y6701D01*
X1444Y6467D01*
X1413Y6499D01*
X1411Y6500D01*
X1490Y6576D01*
X1563Y6679D01*
X1614Y6795D01*
X1643Y6918D01*
X1645Y7063D01*
X1620Y7187D01*
X1572Y7304D01*
X1502Y7409D01*
X1413Y7499D01*
X1392Y7513D01*
X1398Y7530D01*
X1000Y7929D01*
X994Y7923D01*
X923Y7994D01*
X929Y8000D01*
X923Y8005D01*
X994Y8076D01*
X1000Y8070D01*
X1398Y8469D01*
X1392Y8485D01*
X1399Y8489D01*
X1490Y8576D01*
X1563Y8679D01*
X1614Y8795D01*
X1643Y8918D01*
X1645Y9063D01*
X1627Y9150D01*
X6372Y9150D01*
X6355Y9072D01*
X6354Y8945D01*
X6376Y8821D01*
X6423Y8703D01*
X6492Y8597D01*
X6579Y8506D01*
X6588Y8500D01*
X6503Y8416D01*
X6432Y8312D01*
X6382Y8195D01*
X6355Y8072D01*
X6354Y7945D01*
X6376Y7821D01*
X6423Y7703D01*
X6492Y7597D01*
X6579Y7506D01*
X6588Y7500D01*
X6503Y7416D01*
X6432Y7312D01*
X6382Y7195D01*
X6355Y7072D01*
X6354Y6945D01*
X6376Y6821D01*
X6423Y6703D01*
X6492Y6597D01*
X6579Y6506D01*
X6588Y6500D01*
X6503Y6416D01*
X6432Y6312D01*
X6382Y6195D01*
X6355Y6072D01*
X6354Y5945D01*
X6376Y5821D01*
X6423Y5703D01*
X6492Y5597D01*
X6579Y5506D01*
X6588Y5500D01*
X6588Y5500D01*
G37*
G54D20*
X6588Y5500D02*
X6503Y5416D01*
X6432Y5312D01*
X6382Y5195D01*
X6355Y5072D01*
X6354Y4945D01*
X6376Y4821D01*
X6394Y4776D01*
X6209Y4590D01*
X6193Y4571D01*
X6177Y4552D01*
X6176Y4551D01*
X6175Y4550D01*
X6163Y4528D01*
X6151Y4506D01*
X6151Y4505D01*
X6150Y4503D01*
X6143Y4479D01*
X6135Y4456D01*
X6135Y4454D01*
X6135Y4453D01*
X6132Y4428D01*
X6130Y4403D01*
X6130Y4400D01*
X6130Y4400D01*
X6130Y4400D01*
X6130Y4400D01*
X6130Y3611D01*
X5855Y3336D01*
X5868Y3397D01*
X5870Y3491D01*
X5854Y3571D01*
X5822Y3648D01*
X5777Y3716D01*
X5719Y3775D01*
X5650Y3821D01*
X5574Y3853D01*
X5494Y3869D01*
X5411Y3870D01*
X5330Y3854D01*
X5254Y3824D01*
X5246Y3818D01*
X5246Y4030D01*
X5246Y4969D01*
X5245Y5018D01*
X5235Y5066D01*
X5216Y5111D01*
X5189Y5152D01*
X5154Y5186D01*
X5113Y5213D01*
X5068Y5232D01*
X5020Y5242D01*
X4606Y5242D01*
X4544Y5179D01*
X4544Y4550D01*
X5183Y4550D01*
X5246Y4612D01*
X5246Y4969D01*
X5246Y4030D01*
X5246Y4387D01*
X5183Y4450D01*
X4544Y4450D01*
X4544Y3820D01*
X4606Y3758D01*
X5020Y3757D01*
X5068Y3767D01*
X5113Y3786D01*
X5154Y3813D01*
X5189Y3847D01*
X5216Y3888D01*
X5235Y3933D01*
X5245Y3981D01*
X5246Y4030D01*
X5246Y3818D01*
X5185Y3778D01*
X5126Y3721D01*
X5080Y3653D01*
X5047Y3577D01*
X5030Y3497D01*
X5029Y3414D01*
X5029Y3411D01*
X4809Y3190D01*
X4793Y3171D01*
X4777Y3152D01*
X4776Y3151D01*
X4775Y3150D01*
X4763Y3128D01*
X4760Y3122D01*
X4673Y3159D01*
X4561Y3182D01*
X4446Y3182D01*
X4444Y3182D01*
X4444Y3820D01*
X4444Y4450D01*
X4444Y4550D01*
X4444Y5179D01*
X4381Y5242D01*
X3967Y5242D01*
X3919Y5232D01*
X3874Y5213D01*
X3833Y5186D01*
X3798Y5152D01*
X3771Y5111D01*
X3752Y5066D01*
X3742Y5018D01*
X3741Y4969D01*
X3742Y4612D01*
X3804Y4550D01*
X4444Y4550D01*
X4444Y4450D01*
X3804Y4450D01*
X3742Y4387D01*
X3741Y4030D01*
X3742Y3981D01*
X3752Y3933D01*
X3771Y3888D01*
X3798Y3847D01*
X3833Y3813D01*
X3874Y3786D01*
X3919Y3767D01*
X3967Y3757D01*
X4381Y3758D01*
X4444Y3820D01*
X4444Y3182D01*
X4334Y3161D01*
X4228Y3118D01*
X4133Y3056D01*
X4051Y2976D01*
X3999Y2900D01*
X3953Y2969D01*
X3873Y3050D01*
X3778Y3114D01*
X3673Y3159D01*
X3561Y3182D01*
X3446Y3182D01*
X3334Y3161D01*
X3228Y3118D01*
X3133Y3056D01*
X3051Y2976D01*
X2999Y2900D01*
X2953Y2969D01*
X2876Y3048D01*
X2876Y3787D01*
X3029Y3787D01*
X3071Y3796D01*
X3111Y3812D01*
X3147Y3836D01*
X3178Y3867D01*
X3202Y3902D01*
X3219Y3942D01*
X3227Y3984D01*
X3228Y4028D01*
X3228Y5013D01*
X3219Y5055D01*
X3203Y5095D01*
X3179Y5131D01*
X3148Y5162D01*
X3113Y5186D01*
X3073Y5203D01*
X3031Y5211D01*
X2987Y5212D01*
X2985Y5212D01*
X3053Y5280D01*
X3900Y5280D01*
X3934Y5283D01*
X3968Y5286D01*
X3969Y5286D01*
X3971Y5287D01*
X4004Y5296D01*
X4037Y5306D01*
X4039Y5307D01*
X4040Y5307D01*
X4071Y5323D01*
X4101Y5339D01*
X4103Y5340D01*
X4104Y5341D01*
X4131Y5363D01*
X4157Y5384D01*
X4160Y5387D01*
X4160Y5387D01*
X4160Y5387D01*
X4161Y5388D01*
X4411Y5638D01*
X4433Y5664D01*
X4455Y5690D01*
X4456Y5692D01*
X4457Y5694D01*
X4473Y5724D01*
X4490Y5754D01*
X4490Y5756D01*
X4491Y5757D01*
X4501Y5790D01*
X4511Y5823D01*
X4512Y5825D01*
X4512Y5826D01*
X4516Y5860D01*
X4519Y5894D01*
X4519Y5898D01*
X4519Y5898D01*
X4519Y5898D01*
X4520Y5900D01*
X4520Y6630D01*
X4998Y6630D01*
X4998Y6338D01*
X5006Y6296D01*
X5023Y6256D01*
X5047Y6220D01*
X5077Y6189D01*
X5113Y6165D01*
X5153Y6149D01*
X5195Y6140D01*
X5238Y6140D01*
X6086Y6140D01*
X6128Y6148D01*
X6168Y6165D01*
X6204Y6188D01*
X6235Y6219D01*
X6259Y6255D01*
X6276Y6294D01*
X6284Y6337D01*
X6285Y6380D01*
X6284Y7661D01*
X6276Y7703D01*
X6260Y7743D01*
X6236Y7779D01*
X6205Y7810D01*
X6170Y7834D01*
X6130Y7850D01*
X6088Y7859D01*
X6044Y7859D01*
X5196Y7859D01*
X5154Y7851D01*
X5114Y7834D01*
X5078Y7811D01*
X5048Y7780D01*
X5024Y7744D01*
X5007Y7705D01*
X4998Y7662D01*
X4998Y7619D01*
X4998Y7370D01*
X4031Y7370D01*
X4031Y7693D01*
X4031Y8117D01*
X4021Y8165D01*
X4003Y8210D01*
X3976Y8251D01*
X3941Y8286D01*
X3900Y8313D01*
X3855Y8332D01*
X3807Y8342D01*
X3758Y8342D01*
X3470Y8342D01*
X3408Y8280D01*
X3408Y7955D01*
X3968Y7955D01*
X4031Y8018D01*
X4031Y8117D01*
X4031Y7693D01*
X4031Y7793D01*
X3968Y7855D01*
X3408Y7855D01*
X3408Y7531D01*
X3470Y7468D01*
X3758Y7468D01*
X3807Y7468D01*
X3855Y7478D01*
X3900Y7497D01*
X3941Y7524D01*
X3976Y7559D01*
X4003Y7600D01*
X4021Y7645D01*
X4031Y7693D01*
X4031Y7370D01*
X3903Y7370D01*
X3886Y7381D01*
X3846Y7398D01*
X3804Y7406D01*
X3761Y7407D01*
X3308Y7407D01*
X2913Y7407D01*
X2871Y7398D01*
X2831Y7382D01*
X2795Y7358D01*
X2795Y7428D01*
X2733Y7490D01*
X2795Y7490D01*
X2795Y7511D01*
X2815Y7497D01*
X2860Y7478D01*
X2908Y7468D01*
X2957Y7468D01*
X3245Y7468D01*
X3308Y7531D01*
X3308Y7855D01*
X3300Y7855D01*
X3300Y7955D01*
X3308Y7955D01*
X3308Y8280D01*
X3245Y8342D01*
X2957Y8342D01*
X2908Y8342D01*
X2860Y8332D01*
X2815Y8313D01*
X2774Y8286D01*
X2740Y8251D01*
X2713Y8210D01*
X2694Y8165D01*
X2687Y8130D01*
X2664Y8145D01*
X2619Y8164D01*
X2571Y8174D01*
X2522Y8175D01*
X2362Y8175D01*
X2300Y8112D01*
X2300Y7591D01*
X2307Y7591D01*
X2307Y7491D01*
X2300Y7491D01*
X2300Y7483D01*
X2200Y7483D01*
X2200Y7491D01*
X2200Y7591D01*
X2200Y8112D01*
X2137Y8175D01*
X1977Y8175D01*
X1928Y8174D01*
X1880Y8164D01*
X1835Y8145D01*
X1794Y8118D01*
X1759Y8083D01*
X1732Y8042D01*
X1714Y7997D01*
X1704Y7949D01*
X1704Y7653D01*
X1767Y7591D01*
X2200Y7591D01*
X2200Y7491D01*
X1767Y7491D01*
X1704Y7428D01*
X1704Y7132D01*
X1714Y7084D01*
X1732Y7039D01*
X1759Y6998D01*
X1780Y6977D01*
X1760Y6948D01*
X1743Y6908D01*
X1734Y6866D01*
X1734Y6822D01*
X1734Y6757D01*
X1677Y6701D01*
X1677Y8021D01*
X1660Y8152D01*
X1618Y8278D01*
X1576Y8357D01*
X1469Y8398D01*
X1070Y8000D01*
X1469Y7601D01*
X1576Y7642D01*
X1635Y7761D01*
X1669Y7889D01*
X1677Y8021D01*
X1677Y6701D01*
X1444Y6467D01*
X1413Y6499D01*
X1411Y6500D01*
X1490Y6576D01*
X1563Y6679D01*
X1614Y6795D01*
X1643Y6918D01*
X1645Y7063D01*
X1620Y7187D01*
X1572Y7304D01*
X1502Y7409D01*
X1413Y7499D01*
X1392Y7513D01*
X1398Y7530D01*
X1000Y7929D01*
X994Y7923D01*
X923Y7994D01*
X929Y8000D01*
X923Y8005D01*
X994Y8076D01*
X1000Y8070D01*
X1398Y8469D01*
X1392Y8485D01*
X1399Y8489D01*
X1490Y8576D01*
X1563Y8679D01*
X1614Y8795D01*
X1643Y8918D01*
X1645Y9063D01*
X1627Y9150D01*
X6372Y9150D01*
X6355Y9072D01*
X6354Y8945D01*
X6376Y8821D01*
X6423Y8703D01*
X6492Y8597D01*
X6579Y8506D01*
X6588Y8500D01*
X6503Y8416D01*
X6432Y8312D01*
X6382Y8195D01*
X6355Y8072D01*
X6354Y7945D01*
X6376Y7821D01*
X6423Y7703D01*
X6492Y7597D01*
X6579Y7506D01*
X6588Y7500D01*
X6503Y7416D01*
X6432Y7312D01*
X6382Y7195D01*
X6355Y7072D01*
X6354Y6945D01*
X6376Y6821D01*
X6423Y6703D01*
X6492Y6597D01*
X6579Y6506D01*
X6588Y6500D01*
X6503Y6416D01*
X6432Y6312D01*
X6382Y6195D01*
X6355Y6072D01*
X6354Y5945D01*
X6376Y5821D01*
X6423Y5703D01*
X6492Y5597D01*
X6579Y5506D01*
X6588Y5500D01*
G54D10*
G36*
X6588Y1500D02*
X6503Y1416D01*
X6432Y1312D01*
X6382Y1195D01*
X6355Y1072D01*
X6354Y945D01*
X6376Y821D01*
X6423Y703D01*
X6492Y597D01*
X6499Y589D01*
X2854Y589D01*
X2854Y1175D01*
X2500Y1529D01*
X2429Y1458D01*
X2429Y1600D01*
X2075Y1954D01*
X1974Y1920D01*
X1922Y1811D01*
X1892Y1695D01*
X1885Y1575D01*
X1901Y1456D01*
X1940Y1343D01*
X1974Y1279D01*
X2075Y1245D01*
X2429Y1600D01*
X2429Y1458D01*
X2145Y1175D01*
X2179Y1074D01*
X2288Y1022D01*
X2404Y992D01*
X2524Y985D01*
X2643Y1001D01*
X2756Y1040D01*
X2820Y1074D01*
X2854Y1175D01*
X2854Y589D01*
X1499Y589D01*
X1563Y679D01*
X1614Y795D01*
X1643Y918D01*
X1645Y1063D01*
X1620Y1187D01*
X1572Y1304D01*
X1502Y1409D01*
X1413Y1499D01*
X1411Y1500D01*
X1490Y1576D01*
X1563Y1679D01*
X1614Y1795D01*
X1643Y1918D01*
X1645Y2063D01*
X1620Y2187D01*
X1572Y2304D01*
X1502Y2409D01*
X1413Y2499D01*
X1411Y2500D01*
X1490Y2576D01*
X1563Y2679D01*
X1614Y2795D01*
X1643Y2918D01*
X1645Y3063D01*
X1620Y3187D01*
X1572Y3304D01*
X1502Y3409D01*
X1413Y3499D01*
X1411Y3500D01*
X1490Y3576D01*
X1563Y3679D01*
X1614Y3795D01*
X1643Y3918D01*
X1645Y4063D01*
X1620Y4187D01*
X1572Y4304D01*
X1502Y4409D01*
X1413Y4499D01*
X1411Y4500D01*
X1490Y4576D01*
X1563Y4679D01*
X1614Y4795D01*
X1643Y4918D01*
X1645Y5063D01*
X1620Y5187D01*
X1572Y5304D01*
X1502Y5409D01*
X1413Y5499D01*
X1411Y5500D01*
X1490Y5576D01*
X1530Y5632D01*
X1534Y5633D01*
X1568Y5636D01*
X1569Y5636D01*
X1571Y5637D01*
X1604Y5646D01*
X1637Y5656D01*
X1639Y5657D01*
X1640Y5657D01*
X1671Y5673D01*
X1701Y5689D01*
X1703Y5690D01*
X1704Y5691D01*
X1731Y5713D01*
X1757Y5734D01*
X1760Y5737D01*
X1760Y5737D01*
X1760Y5737D01*
X1761Y5738D01*
X1887Y5864D01*
X1889Y5863D01*
X1931Y5855D01*
X1974Y5854D01*
X2567Y5854D01*
X2585Y5858D01*
X2244Y5517D01*
X2222Y5491D01*
X2200Y5465D01*
X2199Y5463D01*
X2198Y5461D01*
X2182Y5431D01*
X2165Y5401D01*
X2165Y5399D01*
X2164Y5398D01*
X2154Y5365D01*
X2144Y5332D01*
X2143Y5330D01*
X2143Y5329D01*
X2139Y5295D01*
X2136Y5261D01*
X2136Y5257D01*
X2136Y5257D01*
X2136Y5257D01*
X2136Y5256D01*
X2136Y5212D01*
X1982Y5212D01*
X1940Y5203D01*
X1900Y5187D01*
X1864Y5163D01*
X1833Y5132D01*
X1809Y5097D01*
X1792Y5057D01*
X1784Y5015D01*
X1783Y4971D01*
X1783Y3986D01*
X1792Y3944D01*
X1808Y3904D01*
X1832Y3868D01*
X1863Y3837D01*
X1898Y3813D01*
X1938Y3796D01*
X1980Y3788D01*
X2024Y3787D01*
X2136Y3787D01*
X2136Y3057D01*
X2133Y3056D01*
X2051Y2976D01*
X1987Y2881D01*
X1942Y2776D01*
X1918Y2665D01*
X1916Y2551D01*
X1937Y2438D01*
X1979Y2332D01*
X2041Y2236D01*
X2120Y2154D01*
X2176Y2115D01*
X2145Y2024D01*
X2500Y1670D01*
X2854Y2024D01*
X2823Y2115D01*
X2860Y2138D01*
X2943Y2217D01*
X3000Y2299D01*
X3041Y2236D01*
X3120Y2154D01*
X3199Y2099D01*
X3133Y2056D01*
X3051Y1976D01*
X3015Y1923D01*
X2924Y1954D01*
X2570Y1600D01*
X2924Y1245D01*
X3015Y1276D01*
X3041Y1236D01*
X3120Y1154D01*
X3214Y1089D01*
X3319Y1043D01*
X3430Y1018D01*
X3544Y1016D01*
X3657Y1036D01*
X3763Y1077D01*
X3860Y1138D01*
X3943Y1217D01*
X4000Y1299D01*
X4041Y1236D01*
X4120Y1154D01*
X4214Y1089D01*
X4319Y1043D01*
X4430Y1018D01*
X4544Y1016D01*
X4657Y1036D01*
X4763Y1077D01*
X4860Y1138D01*
X4943Y1217D01*
X5000Y1299D01*
X5041Y1236D01*
X5120Y1154D01*
X5214Y1089D01*
X5319Y1043D01*
X5430Y1018D01*
X5544Y1016D01*
X5657Y1036D01*
X5763Y1077D01*
X5860Y1138D01*
X5943Y1217D01*
X6008Y1310D01*
X6055Y1415D01*
X6080Y1526D01*
X6082Y1657D01*
X6060Y1769D01*
X6016Y1874D01*
X5953Y1969D01*
X5873Y2050D01*
X5799Y2100D01*
X5860Y2138D01*
X5943Y2217D01*
X6008Y2310D01*
X6055Y2415D01*
X6080Y2526D01*
X6082Y2657D01*
X6060Y2769D01*
X6057Y2775D01*
X6356Y3074D01*
X6355Y3072D01*
X6354Y2945D01*
X6376Y2821D01*
X6423Y2703D01*
X6492Y2597D01*
X6579Y2506D01*
X6588Y2500D01*
X6503Y2416D01*
X6432Y2312D01*
X6382Y2195D01*
X6355Y2072D01*
X6354Y1945D01*
X6376Y1821D01*
X6423Y1703D01*
X6492Y1597D01*
X6579Y1506D01*
X6588Y1500D01*
X6588Y1500D01*
G37*
G54D20*
X6588Y1500D02*
X6503Y1416D01*
X6432Y1312D01*
X6382Y1195D01*
X6355Y1072D01*
X6354Y945D01*
X6376Y821D01*
X6423Y703D01*
X6492Y597D01*
X6499Y589D01*
X2854Y589D01*
X2854Y1175D01*
X2500Y1529D01*
X2429Y1458D01*
X2429Y1600D01*
X2075Y1954D01*
X1974Y1920D01*
X1922Y1811D01*
X1892Y1695D01*
X1885Y1575D01*
X1901Y1456D01*
X1940Y1343D01*
X1974Y1279D01*
X2075Y1245D01*
X2429Y1600D01*
X2429Y1458D01*
X2145Y1175D01*
X2179Y1074D01*
X2288Y1022D01*
X2404Y992D01*
X2524Y985D01*
X2643Y1001D01*
X2756Y1040D01*
X2820Y1074D01*
X2854Y1175D01*
X2854Y589D01*
X1499Y589D01*
X1563Y679D01*
X1614Y795D01*
X1643Y918D01*
X1645Y1063D01*
X1620Y1187D01*
X1572Y1304D01*
X1502Y1409D01*
X1413Y1499D01*
X1411Y1500D01*
X1490Y1576D01*
X1563Y1679D01*
X1614Y1795D01*
X1643Y1918D01*
X1645Y2063D01*
X1620Y2187D01*
X1572Y2304D01*
X1502Y2409D01*
X1413Y2499D01*
X1411Y2500D01*
X1490Y2576D01*
X1563Y2679D01*
X1614Y2795D01*
X1643Y2918D01*
X1645Y3063D01*
X1620Y3187D01*
X1572Y3304D01*
X1502Y3409D01*
X1413Y3499D01*
X1411Y3500D01*
X1490Y3576D01*
X1563Y3679D01*
X1614Y3795D01*
X1643Y3918D01*
X1645Y4063D01*
X1620Y4187D01*
X1572Y4304D01*
X1502Y4409D01*
X1413Y4499D01*
X1411Y4500D01*
X1490Y4576D01*
X1563Y4679D01*
X1614Y4795D01*
X1643Y4918D01*
X1645Y5063D01*
X1620Y5187D01*
X1572Y5304D01*
X1502Y5409D01*
X1413Y5499D01*
X1411Y5500D01*
X1490Y5576D01*
X1530Y5632D01*
X1534Y5633D01*
X1568Y5636D01*
X1569Y5636D01*
X1571Y5637D01*
X1604Y5646D01*
X1637Y5656D01*
X1639Y5657D01*
X1640Y5657D01*
X1671Y5673D01*
X1701Y5689D01*
X1703Y5690D01*
X1704Y5691D01*
X1731Y5713D01*
X1757Y5734D01*
X1760Y5737D01*
X1760Y5737D01*
X1760Y5737D01*
X1761Y5738D01*
X1887Y5864D01*
X1889Y5863D01*
X1931Y5855D01*
X1974Y5854D01*
X2567Y5854D01*
X2585Y5858D01*
X2244Y5517D01*
X2222Y5491D01*
X2200Y5465D01*
X2199Y5463D01*
X2198Y5461D01*
X2182Y5431D01*
X2165Y5401D01*
X2165Y5399D01*
X2164Y5398D01*
X2154Y5365D01*
X2144Y5332D01*
X2143Y5330D01*
X2143Y5329D01*
X2139Y5295D01*
X2136Y5261D01*
X2136Y5257D01*
X2136Y5257D01*
X2136Y5257D01*
X2136Y5256D01*
X2136Y5212D01*
X1982Y5212D01*
X1940Y5203D01*
X1900Y5187D01*
X1864Y5163D01*
X1833Y5132D01*
X1809Y5097D01*
X1792Y5057D01*
X1784Y5015D01*
X1783Y4971D01*
X1783Y3986D01*
X1792Y3944D01*
X1808Y3904D01*
X1832Y3868D01*
X1863Y3837D01*
X1898Y3813D01*
X1938Y3796D01*
X1980Y3788D01*
X2024Y3787D01*
X2136Y3787D01*
X2136Y3057D01*
X2133Y3056D01*
X2051Y2976D01*
X1987Y2881D01*
X1942Y2776D01*
X1918Y2665D01*
X1916Y2551D01*
X1937Y2438D01*
X1979Y2332D01*
X2041Y2236D01*
X2120Y2154D01*
X2176Y2115D01*
X2145Y2024D01*
X2500Y1670D01*
X2854Y2024D01*
X2823Y2115D01*
X2860Y2138D01*
X2943Y2217D01*
X3000Y2299D01*
X3041Y2236D01*
X3120Y2154D01*
X3199Y2099D01*
X3133Y2056D01*
X3051Y1976D01*
X3015Y1923D01*
X2924Y1954D01*
X2570Y1600D01*
X2924Y1245D01*
X3015Y1276D01*
X3041Y1236D01*
X3120Y1154D01*
X3214Y1089D01*
X3319Y1043D01*
X3430Y1018D01*
X3544Y1016D01*
X3657Y1036D01*
X3763Y1077D01*
X3860Y1138D01*
X3943Y1217D01*
X4000Y1299D01*
X4041Y1236D01*
X4120Y1154D01*
X4214Y1089D01*
X4319Y1043D01*
X4430Y1018D01*
X4544Y1016D01*
X4657Y1036D01*
X4763Y1077D01*
X4860Y1138D01*
X4943Y1217D01*
X5000Y1299D01*
X5041Y1236D01*
X5120Y1154D01*
X5214Y1089D01*
X5319Y1043D01*
X5430Y1018D01*
X5544Y1016D01*
X5657Y1036D01*
X5763Y1077D01*
X5860Y1138D01*
X5943Y1217D01*
X6008Y1310D01*
X6055Y1415D01*
X6080Y1526D01*
X6082Y1657D01*
X6060Y1769D01*
X6016Y1874D01*
X5953Y1969D01*
X5873Y2050D01*
X5799Y2100D01*
X5860Y2138D01*
X5943Y2217D01*
X6008Y2310D01*
X6055Y2415D01*
X6080Y2526D01*
X6082Y2657D01*
X6060Y2769D01*
X6057Y2775D01*
X6356Y3074D01*
X6355Y3072D01*
X6354Y2945D01*
X6376Y2821D01*
X6423Y2703D01*
X6492Y2597D01*
X6579Y2506D01*
X6588Y2500D01*
X6503Y2416D01*
X6432Y2312D01*
X6382Y2195D01*
X6355Y2072D01*
X6354Y1945D01*
X6376Y1821D01*
X6423Y1703D01*
X6492Y1597D01*
X6579Y1506D01*
X6588Y1500D01*
M02*
