PCBNEW-LibModule-V1  Wed 02 Sep 2015 07:56:04 PM CEST
# encoding utf-8
Units mm
$INDEX
ARDUINO_MICRO_FOOTPRINT_SHORT
RF-IS2411
RF-IS2411_NO_OUTLINE
SOT223
c_tant_A
c_tant_B
c_tant_C
$EndINDEX
$MODULE ARDUINO_MICRO_FOOTPRINT_SHORT
Po 0 0 0 15 55E5F45E 00000000 ~~
Li ARDUINO_MICRO_FOOTPRINT_SHORT
Sc 0
AR 
Op 0 0 0
T0 0 -17.78 1 1 0 0.15 N V 21 N "ARDUINO_MICRO_FOOTPRINT_SHORT"
T1 0 15.24 1 1 0 0.15 N I 21 N "VAL**"
DC -7.62 -15.24 -7.112 -15.24 0.15 21
DC 7.62 -15.24 7.112 -15.24 0.15 21
DS 8.89 13.97 8.89 -16.51 0.15 21
DS 8.89 -16.51 -8.89 -16.51 0.15 21
DS -8.89 -16.51 -8.89 13.97 0.15 21
DS -8.89 13.97 8.89 13.97 0.15 21
$PAD
Sh "1" C 2.159 2.159 0 0 0
Dr 1.016 0 0
At STD N 00E0FFFF
Ne 0 ""
Po -7.62 -12.7
$EndPAD
$PAD
Sh "2" C 2.159 2.159 0 0 0
Dr 1.016 0 0
At STD N 00E0FFFF
Ne 0 ""
Po -7.62 -10.16
$EndPAD
$PAD
Sh "3" C 2.159 2.159 0 0 0
Dr 1.016 0 0
At STD N 00E0FFFF
Ne 0 ""
Po -7.62 -7.62
$EndPAD
$PAD
Sh "4" C 2.159 2.159 0 0 0
Dr 1.016 0 0
At STD N 00E0FFFF
Ne 0 ""
Po -7.62 -5.08
$EndPAD
$PAD
Sh "5" C 2.159 2.159 0 0 0
Dr 1.016 0 0
At STD N 00E0FFFF
Ne 0 ""
Po -7.62 -2.54
$EndPAD
$PAD
Sh "6" C 2.159 2.159 0 0 0
Dr 1.016 0 0
At STD N 00E0FFFF
Ne 0 ""
Po -7.62 0
$EndPAD
$PAD
Sh "7" C 2.159 2.159 0 0 0
Dr 1.016 0 0
At STD N 00E0FFFF
Ne 0 ""
Po -7.62 2.54
$EndPAD
$PAD
Sh "8" C 2.159 2.159 0 0 0
Dr 1.016 0 0
At STD N 00E0FFFF
Ne 0 ""
Po -7.62 5.08
$EndPAD
$PAD
Sh "9" C 2.159 2.159 0 0 0
Dr 1.016 0 0
At STD N 00E0FFFF
Ne 0 ""
Po -7.62 7.62
$EndPAD
$PAD
Sh "10" C 2.159 2.159 0 0 0
Dr 1.016 0 0
At STD N 00E0FFFF
Ne 0 ""
Po -7.62 10.16
$EndPAD
$PAD
Sh "25" C 2.159 2.159 0 0 0
Dr 1.016 0 0
At STD N 00E0FFFF
Ne 0 ""
Po 7.62 10.16
$EndPAD
$PAD
Sh "26" C 2.159 2.159 0 0 0
Dr 1.016 0 0
At STD N 00E0FFFF
Ne 0 ""
Po 7.62 7.62
$EndPAD
$PAD
Sh "27" C 2.159 2.159 0 0 0
Dr 1.016 0 0
At STD N 00E0FFFF
Ne 0 ""
Po 7.62 5.08
$EndPAD
$PAD
Sh "28" C 2.159 2.159 0 0 0
Dr 1.016 0 0
At STD N 00E0FFFF
Ne 0 ""
Po 7.62 2.54
$EndPAD
$PAD
Sh "29" C 2.159 2.159 0 0 0
Dr 1.016 0 0
At STD N 00E0FFFF
Ne 0 ""
Po 7.62 0
$EndPAD
$PAD
Sh "30" C 2.159 2.159 0 0 0
Dr 1.016 0 0
At STD N 00E0FFFF
Ne 0 ""
Po 7.62 -2.54
$EndPAD
$PAD
Sh "31" C 2.159 2.159 0 0 0
Dr 1.016 0 0
At STD N 00E0FFFF
Ne 0 ""
Po 7.62 -5.08
$EndPAD
$PAD
Sh "32" C 2.159 2.159 0 0 0
Dr 1.016 0 0
At STD N 00E0FFFF
Ne 0 ""
Po 7.62 -7.62
$EndPAD
$PAD
Sh "33" C 2.159 2.159 0 0 0
Dr 1.016 0 0
At STD N 00E0FFFF
Ne 0 ""
Po 7.62 -10.16
$EndPAD
$PAD
Sh "34" C 2.159 2.159 0 0 0
Dr 1.016 0 0
At STD N 00E0FFFF
Ne 0 ""
Po 7.62 -12.7
$EndPAD
$PAD
Sh "11" C 2.159 2.159 0 0 0
Dr 1.016 0 0
At STD N 00E0FFFF
Ne 0 ""
Po -7.62 12.7
$EndPAD
$PAD
Sh "24" C 2.159 2.159 0 0 0
Dr 1.016 0 0
At STD N 00E0FFFF
Ne 0 ""
Po 7.62 12.7
$EndPAD
$EndMODULE ARDUINO_MICRO_FOOTPRINT_SHORT
$MODULE RF-IS2411
Po 0 0 0 15 55E49871 00000000 ~~
Li RF-IS2411
Sc 0
AR 
Op 0 0 0
T0 0 -16.51 1 1 0 0.15 N V 21 N "RF-IS2411"
T1 0 15.24 1 1 0 0.15 N I 21 N "VAL**"
DS -3.81 11.43 -3.81 13.97 0.15 21
DS -6.35 11.43 -6.35 13.97 0.15 21
DS -3.81 11.43 -6.35 11.43 0.15 21
DS -7.747 -7.112 7.747 -7.112 0.15 21
DS 7.747 13.97 7.747 -14.986 0.15 21
DS -7.747 13.97 -7.747 -14.986 0.15 21
DS -7.747 -14.986 7.747 -14.986 0.15 21
DS -7.747 13.97 7.747 13.97 0.15 21
$PAD
Sh "1" C 1.8415 1.8415 0 0 0
Dr 1.016 0 0
At STD N 00E0FFFF
Ne 0 ""
Po -5.08 12.7
$EndPAD
$PAD
Sh "2" C 1.8415 1.8415 0 0 0
Dr 1.016 0 0
At STD N 00E0FFFF
Ne 0 ""
Po -5.08 10.16
$EndPAD
$PAD
Sh "3" C 1.8415 1.8415 0 0 0
Dr 1.016 0 0
At STD N 00E0FFFF
Ne 0 ""
Po -2.54 12.7
$EndPAD
$PAD
Sh "4" C 1.8415 1.8415 0 0 0
Dr 1.016 0 0
At STD N 00E0FFFF
Ne 0 ""
Po -2.54 10.16
$EndPAD
$PAD
Sh "5" C 1.8415 1.8415 0 0 0
Dr 1.016 0 0
At STD N 00E0FFFF
Ne 0 ""
Po 0 12.7
$EndPAD
$PAD
Sh "6" C 1.8415 1.8415 0 0 0
Dr 1.016 0 0
At STD N 00E0FFFF
Ne 0 ""
Po 0 10.16
$EndPAD
$PAD
Sh "7" C 1.8415 1.8415 0 0 0
Dr 1.016 0 0
At STD N 00E0FFFF
Ne 0 ""
Po 2.54 12.7
$EndPAD
$PAD
Sh "8" C 1.8415 1.8415 0 0 0
Dr 1.016 0 0
At STD N 00E0FFFF
Ne 0 ""
Po 2.54 10.16
$EndPAD
$EndMODULE RF-IS2411
$MODULE RF-IS2411_NO_OUTLINE
Po 0 0 0 15 55E7382A 00000000 ~~
Li RF-IS2411_NO_OUTLINE
Sc 0
AR 
Op 0 0 0
T0 0 -16.51 1 1 0 0.15 N V 21 N "RF-IS2411_NO_OUTLINE"
T1 0 15.24 1 1 0 0.15 N I 21 N "VAL**"
DS -6.35 13.97 -3.81 13.97 0.15 21
DS -3.81 11.43 -3.81 13.97 0.15 21
DS -6.35 11.43 -6.35 13.97 0.15 21
DS -3.81 11.43 -6.35 11.43 0.15 21
$PAD
Sh "1" C 1.8415 1.8415 0 0 0
Dr 1.016 0 0
At STD N 00E0FFFF
Ne 0 ""
Po -5.08 12.7
$EndPAD
$PAD
Sh "2" C 1.8415 1.8415 0 0 0
Dr 1.016 0 0
At STD N 00E0FFFF
Ne 0 ""
Po -5.08 10.16
$EndPAD
$PAD
Sh "3" C 1.8415 1.8415 0 0 0
Dr 1.016 0 0
At STD N 00E0FFFF
Ne 0 ""
Po -2.54 12.7
$EndPAD
$PAD
Sh "4" C 1.8415 1.8415 0 0 0
Dr 1.016 0 0
At STD N 00E0FFFF
Ne 0 ""
Po -2.54 10.16
$EndPAD
$PAD
Sh "5" C 1.8415 1.8415 0 0 0
Dr 1.016 0 0
At STD N 00E0FFFF
Ne 0 ""
Po 0 12.7
$EndPAD
$PAD
Sh "6" C 1.8415 1.8415 0 0 0
Dr 1.016 0 0
At STD N 00E0FFFF
Ne 0 ""
Po 0 10.16
$EndPAD
$PAD
Sh "7" C 1.8415 1.8415 0 0 0
Dr 1.016 0 0
At STD N 00E0FFFF
Ne 0 ""
Po 2.54 12.7
$EndPAD
$PAD
Sh "8" C 1.8415 1.8415 0 0 0
Dr 1.016 0 0
At STD N 00E0FFFF
Ne 0 ""
Po 2.54 10.16
$EndPAD
$EndMODULE RF-IS2411_NO_OUTLINE
$MODULE SOT223
Po 0 0 0 15 55E4929D 00000000 ~~
Li SOT223
Sc 0
AR 
Op 0 0 0
T0 0 -5.08 1 1 0 0.15 N V 21 N "SOT223"
T1 0 5.08 1 1 0 0.15 N I 21 N "VAL**"
DS -3.35 1.85 3.35 1.85 0.15 21
DS 3.35 1.85 3.35 -1.85 0.15 21
DS 3.35 -1.85 -3.35 -1.85 0.15 21
DS -3.35 -1.85 -3.35 1.85 0.15 21
$PAD
Sh "1" R 0.95 2.15 0 0 0
Dr 0 0 0
At SMD N 00888000
Ne 0 ""
Po -2.3 2.9
$EndPAD
$PAD
Sh "2" R 0.95 2.15 0 0 0
Dr 0 0 0
At SMD N 00888000
Ne 0 ""
Po 0 2.9
$EndPAD
$PAD
Sh "3" R 0.95 2.15 0 0 0
Dr 0 0 0
At SMD N 00888000
Ne 0 ""
Po 2.3 2.9
$EndPAD
$PAD
Sh "2" R 3.25 2.15 0 0 0
Dr 0 0 0
At SMD N 00888000
Ne 0 ""
Po 0 -2.9
$EndPAD
$EndMODULE SOT223
$MODULE c_tant_A
Po 0 0 0 15 55E5F093 00000000 ~~
Li c_tant_A
Cd SMT capacitor, tantalum size A
Sc 0
AR 
Op 0 0 0
T0 0 -1.905 1.016 1.016 0 0.1524 N V 21 N "c_tant_A"
T1 0 1.905 1.016 1.016 0 0.1524 N I 21 N "C***"
DS 0.889 1.397 1.397 1.397 0.15 21
DS 1.143 1.143 1.143 1.651 0.15 21
DS 1.143 0.8128 1.143 -0.8128 0.127 21
DS -1.6002 -0.8128 -1.6002 0.8128 0.127 21
DS -1.6002 0.8128 1.6002 0.8128 0.127 21
DS 1.6002 0.8128 1.6002 -0.8128 0.127 21
DS 1.6002 -0.8128 -1.6002 -0.8128 0.127 21
$PAD
Sh "1" R 1.95072 1.50114 0 0 0
Dr 0 0 0
At SMD N 00888000
Ne 0 ""
Po 1.37414 0
$EndPAD
$PAD
Sh "2" R 1.95072 1.50114 0 0 0
Dr 0 0 0
At SMD N 00888000
Ne 0 ""
Po -1.37414 0
$EndPAD
$SHAPE3D
Na "smd/capacitors/c_tant_A.wrl"
Sc 1 1 1
Of 0 0 0
Ro 0 0 0
$EndSHAPE3D
$EndMODULE c_tant_A
$MODULE c_tant_B
Po 0 0 0 15 55E5F107 00000000 ~~
Li c_tant_B
Cd SMT capacitor, tantalum size B
Sc 0
AR 
Op 0 0 0
T0 0 -2.54 1.016 1.016 0 0.1524 N V 21 N "c_tant_B"
T1 0 2.54 1.016 1.016 0 0.1524 N I 21 N "C***"
DS 1.524 2.032 1.016 2.032 0.15 21
DS 1.27 1.778 1.27 2.286 0.15 21
DS 1.2065 -1.397 1.2065 1.397 0.127 21
DS 1.778 -1.397 -1.778 -1.397 0.127 21
DS -1.778 -1.397 -1.778 1.397 0.127 21
DS -1.778 1.397 1.778 1.397 0.127 21
DS 1.778 1.397 1.778 -1.397 0.127 21
$PAD
Sh "1" R 1.95072 2.49936 0 0 0
Dr 0 0 0
At SMD N 00888000
Ne 0 ""
Po 1.524 0
$EndPAD
$PAD
Sh "2" R 1.95072 2.49936 0 0 0
Dr 0 0 0
At SMD N 00888000
Ne 0 ""
Po -1.524 0
$EndPAD
$SHAPE3D
Na "smd/capacitors/c_tant_B.wrl"
Sc 1 1 1
Of 0 0 0
Ro 0 0 0
$EndSHAPE3D
$EndMODULE c_tant_B
$MODULE c_tant_C
Po 0 0 0 15 55E5F15F 00000000 ~~
Li c_tant_C
Cd SMT capacitor, tantalum size C
Sc 0
AR 
Op 0 0 0
T0 0 -2.54 1.016 1.016 0 0.1524 N V 21 N "c_tant_C"
T1 0 2.54 1.016 1.016 0 0.1524 N I 21 N "C***"
DS 2.413 2.159 1.905 2.159 0.15 21
DS 2.159 1.905 2.159 2.413 0.15 21
DS 2.0955 -1.5875 2.0955 1.5875 0.127 21
DS -3.048 -1.5875 -3.048 1.5875 0.127 21
DS -3.048 1.5875 3.048 1.5875 0.127 21
DS 3.048 1.5875 3.048 -1.5875 0.127 21
DS 3.048 -1.5875 -3.048 -1.5875 0.127 21
$PAD
Sh "1" R 2.55016 2.49936 0 0 0
Dr 0 0 0
At SMD N 00888000
Ne 0 ""
Po 2.52476 0
$EndPAD
$PAD
Sh "2" R 2.55016 2.49936 0 0 0
Dr 0 0 0
At SMD N 00888000
Ne 0 ""
Po -2.52476 0
$EndPAD
$SHAPE3D
Na "smd/capacitors/c_tant_C.wrl"
Sc 1 1 1
Of 0 0 0
Ro 0 0 0
$EndSHAPE3D
$EndMODULE c_tant_C
$EndLIBRARY
